…
brome_list <- c("brome", "no_brome")
edge_list <- lapply(brome_list, function(br){
  #For each census calculate the edge list for each canopy and use rbind to make a full edge list.
  #After lapply, result is a list with three components. Each component is an edge list for each census.
  shrub <- create_canopy_edge_list("shrub", br)
  open <- create_canopy_edge_list("open", br)
  
  edge <- rbind(shrub, open)
  return(edge)
})

edge_list <- do.call("rbind", edge_list)
edge_list

## # A tibble: 764 x 5
##     from    to weight canopy brome_site
##    <int> <int>  <dbl> <chr>  <chr>     
##  1     1     2    396 shrub  brome     
##  2     1     3      2 shrub  brome     
##  3     1     4      4 shrub  brome     
##  4     1     5     13 shrub  brome     
##  5     1     7      8 shrub  brome     
##  6     1     8     12 shrub  brome     
##  7     1    10      1 shrub  brome     
##  8     1    11      3 shrub  brome     
##  9     1    12     56 shrub  brome     
## 10     1    13      2 shrub  brome     
## # ... with 754 more rows
…
